...................
----------------------------------------------------------------------
Ran 19 tests in 0.008s

OK
Name             Stmts   Miss Branch BrPart  Cover   Missing
------------------------------------------------------------
Collatz.py          44      0     16      0   100%
TestCollatz.py      83      0      0      0   100%
------------------------------------------------------------
TOTAL              127      0     16      0   100%